﻿{
   "CodeGenerationMode": 2,
   "ContextClassName": "AplicationDBContext",
   "ContextNamespace": null,
   "DefaultDacpacSchema": null,
   "FilterSchemas": false,
   "IncludeConnectionString": false,
   "ModelNamespace": null,
   "OutputContextPath": null,
   "OutputPath": "Models",
   "ProjectRootNamespace": "Biometrika.Solutions.Shared.Model",
   "Schemas": null,
   "SelectedHandlebarsLanguage": 0,
   "SelectedToBeGenerated": 2,
   "Tables": [
      {
         "Name": "[dbo].[bp_bir]",
         "ObjectType": 0
      },
      {
         "Name": "[dbo].[bp_client]",
         "ObjectType": 0
      },
      {
         "Name": "[dbo].[bp_company]",
         "ObjectType": 0
      },
      {
         "Name": "[dbo].[bp_company_form]",
         "ObjectType": 0
      },
      {
         "Name": "[dbo].[bp_company_theme]",
         "ObjectType": 0
      },
      {
         "Name": "[dbo].[bp_device]",
         "ObjectType": 0
      },
      {
         "Name": "[dbo].[bp_diagnostic_bir]",
         "ObjectType": 0
      },
      {
         "Name": "[dbo].[bp_diagnostic_blacklist]",
         "ObjectType": 0
      },
      {
         "Name": "[dbo].[bp_diagnostic_duplicados]",
         "ObjectType": 0
      },
      {
         "Name": "[dbo].[bp_diagnostic_duplicados_audit]",
         "ObjectType": 0
      },
      {
         "Name": "[dbo].[bp_diagnostic_duplicados_bl]",
         "ObjectType": 0
      },
      {
         "Name": "[dbo].[bp_diagnostic_identity]",
         "ObjectType": 0
      },
      {
         "Name": "[dbo].[bp_diagnostic_minutiae]",
         "ObjectType": 0
      },
      {
         "Name": "[dbo].[bp_identity]",
         "ObjectType": 0
      },
      {
         "Name": "[dbo].[bp_identity_3ro]",
         "ObjectType": 0
      },
      {
         "Name": "[dbo].[bp_identity_dynamicdata]",
         "ObjectType": 0
      },
      {
         "Name": "[dbo].[bp_identity_org]",
         "ObjectType": 0
      },
      {
         "Name": "[dbo].[bp_log]",
         "ObjectType": 0
      },
      {
         "Name": "[dbo].[bp_origin]",
         "ObjectType": 0
      },
      {
         "Name": "[dbo].[bp_roles]",
         "ObjectType": 0
      },
      {
         "Name": "[dbo].[bp_tx]",
         "ObjectType": 0
      },
      {
         "Name": "[dbo].[bp_tx_conx]",
         "ObjectType": 0
      },
      {
         "Name": "[dbo].[bp_tx_tonotarize]",
         "ObjectType": 0
      },
      {
         "Name": "[dbo].[bp_users]",
         "ObjectType": 0
      },
      {
         "Name": "[dbo].[bp_usersinroles]",
         "ObjectType": 0
      },
      {
         "Name": "[dbo].[bp_verified]",
         "ObjectType": 0
      },
      {
         "Name": "[dbo].[Country]",
         "ObjectType": 0
      },
      {
         "Name": "[dbo].[Sector]",
         "ObjectType": 0
      }
   ],
   "UiHint": "DESKTOP-EVPUDI7.bp_v5.9",
   "UseBoolPropertiesWithoutDefaultSql": false,
   "UseDatabaseNames": false,
   "UseDbContextSplitting": false,
   "UseFluentApiOnly": false,
   "UseHandleBars": true,
   "UseHierarchyId": false,
   "UseInflector": false,
   "UseLegacyPluralizer": false,
   "UseManyToManyEntity": true,
   "UseNoConstructor": false,
   "UseNoDefaultConstructor": false,
   "UseNoNavigations": false,
   "UseNoObjectFilter": false,
   "UseNodaTime": false,
   "UseNullableReferences": false,
   "UseSchemaFolders": false,
   "UseSpatial": false
}