{
    "iisSettings": {
      "windowsAuthentication": false,
      "anonymousAuthentication": true,
      "iisExpress": {
        "applicationUrl": "http://localhost:50798",
        "sslPort": 44376
      }
    },
    "profiles": {
      "Biometrika.Ferias.Server": {
        "commandName": "Project",
        "dotnetRunMessages": true,
        "launchBrowser": true,
        "inspectUri": "{wsProtocol}://{url.hostname}:{url.port}/_framework/debug/ws-proxy?browser={browserInspectUri}",
        "applicationUrl": "https://localhost:7231;http://localhost:5231",
        "environmentVariables": {
          "ASPNETCORE_ENVIRONMENT": "Development"
        }
      },
      "IIS Express": {
        "commandName": "IISExpress",
        "launchBrowser": true,
        "inspectUri": "{wsProtocol}://{url.hostname}:{url.port}/_framework/debug/ws-proxy?browser={browserInspectUri}",
        "environmentVariables": {
          "ASPNETCORE_ENVIRONMENT": "Development"
        }
      }
    }
  }
