﻿[
  {
    "id": 1,
    "type": 0,
    "title": "Informacion 1",
    "detail": "Datos para mostrar en la Card 1",
    "image": "https://drive.google.com/file/d/1kbEwOtwXA2Mtxq41jxfZAp82d_6ouA7J/view?usp=sharing",
    "urlInfo": null,
    "relatedProducts": [
      {
        "id": 1,
        "name": "BioPortal",
        "urlInfo": "https://www.biometrikalatam.com/servicio/plataforma-de-verificacion-y-enrolamiento/"
      }
    ]
  },
  {
    "id": 1,
    "type": 2,
    "title": "Informacion 1",
    "detail": "Datos para mostrar en la Card 1",
    "image": "",
    "urlInfo": "https://drive.google.com/file/d/1X2L21cUayVpmXCqI4Kquwc6oee9_T7Qb/view?usp=sharing",
    "relatedProducts": [
      {
        "id": 1,
        "name": "BioPortal",
        "urlInfo": "https://www.biometrikalatam.com/servicio/plataforma-de-verificacion-y-enrolamiento/"
      }
    ]
  },
  {
    "id": 1,
    "type": 2,
    "title": "Informacion 1",
    "detail": "Datos para mostrar en la Card 1",
    "image": "",
    "urlInfo": "https://drive.google.com/file/d/1X2L21cUayVpmXCqI4Kquwc6oee9_T7Qb/view?usp=sharing",
    "relatedProducts": [
      {
        "id": 1,
        "name": "BioPortal",
        "urlInfo": "https://www.biometrikalatam.com/servicio/plataforma-de-verificacion-y-enrolamiento/"
      },
      {
        "id": 1,
        "name": "BioPortal",
        "urlInfo": "https://www.biometrikalatam.com/servicio/plataforma-de-verificacion-y-enrolamiento/"
      }
    ]
  }
]