<?xml version="1.0" encoding="utf-8" ?>
<hibernate-mapping xmlns="urn:nhibernate-mapping-2.2">
	<class name="Bio.Core.Log.Log, Bio.Core" table="Log">
		<id name="Id" column="Id" type="Int32" unsaved-value="0">
			<generator class="identity" />
		</id>
		<property name="Date" column="Datel" type="DateTime" not-null="true" />
		<property name="Thread" column="Threadl" type="String" not-null="true" />
		<property name="Level" column="Levell" type="String" not-null="true" />
		<property name="Logger" column="Loggerl" type="String" not-null="true" />
		<property name="Message" column="Messagel" type="String" not-null="true" />
		<property name="Exception" column="Exceptionl" type="String" not-null="true" />
	</class>
</hibernate-mapping>

			